<svg width="26" height="26" viewBox="0 0 26 26" fill="none" xmlns="http://www.w3.org/2000/svg">
<path d="M23.5 25C24.0523 25.5523 24.9477 25.5523 25.5 25V25V25C26.0523 24.4477 26.0523 23.5523 25.5 23L19.9277 17.4277C19.6505 17.8119 19.3491 18.1776 19.0258 18.5224C19.0172 18.5316 19.0086 18.5407 19 18.5499C18.6841 18.8845 18.3475 19.1992 17.9922 19.4922L23.5 25Z" fill="#6B6B6B"/>
<path d="M9.99442 8.52253C9.3833 8.74026 8.67818 8.67818 8.21945 8.21945V8.21945C7.58859 7.58859 7.69371 6.52602 8.51617 6.18026C12.1131 4.66808 15.6391 6.15038 16.3645 9.63454C16.5192 10.3773 15.8849 11 15.1262 11V11C14.4714 11 13.9351 10.5225 13.6544 9.93081C12.9849 8.51975 11.648 7.9334 9.99442 8.52253Z" fill="#6B6B6B"/>
<path fill-rule="evenodd" clip-rule="evenodd" d="M19.9277 17.4277C21.2317 15.6196 22 13.3995 22 11C22 4.92487 17.0751 0 11 0C4.92487 0 0 4.92487 0 11C0 17.0751 4.92487 22 11 22C13.6556 22 16.0914 21.059 17.9922 19.4922C18.3475 19.1992 18.6841 18.8845 19 18.5499L19.0258 18.5224C19.3491 18.1776 19.6505 17.8119 19.9277 17.4277ZM11 19C15.4183 19 19 15.4183 19 11C19 6.58172 15.4183 3 11 3C6.58172 3 3 6.58172 3 11C3 15.4183 6.58172 19 11 19ZM9.99442 8.52253C9.3833 8.74026 8.67818 8.67818 8.21945 8.21945V8.21945C7.58859 7.58859 7.69371 6.52602 8.51617 6.18026C12.1131 4.66808 15.6391 6.15038 16.3645 9.63454C16.5192 10.3773 15.8849 11 15.1262 11V11C14.4714 11 13.9351 10.5225 13.6544 9.93081C12.9849 8.51975 11.648 7.9334 9.99442 8.52253Z" fill="#6B6B6B"/>
</svg>
