<svg width="58" height="58" viewBox="0 0 58 58" fill="none" xmlns="http://www.w3.org/2000/svg">
<circle cx="29" cy="29" r="29" fill="#FDFDFD"/>
<path d="M23.2817 19.6056V37.5774M34.7184 37.5774V19.6056" stroke="#FFCA81" stroke-width="5" stroke-linecap="round" stroke-linejoin="round"/>
</svg>
