<svg width="142" height="142" viewBox="0 0 142 142" fill="none" xmlns="http://www.w3.org/2000/svg">
<circle cx="71" cy="71" r="71" fill="#D9D9D9"/>
<path d="M57 48V92M85 92V48" stroke="#FBFBFB" stroke-width="8" stroke-linecap="round" stroke-linejoin="round"/>
</svg>
