<svg width="121" height="121" viewBox="0 0 121 121" fill="none" xmlns="http://www.w3.org/2000/svg">
<rect x="38" y="38" width="45" height="45" rx="3" fill="#2F2F2F"/>
<circle cx="60.5" cy="60.5" r="58" stroke="#D5DBDD" stroke-width="5"/>
</svg>
